<svg width="16" height="16" viewBox="0 0 16 16" fill="none" xmlns="http://www.w3.org/2000/svg">
<path d="M12.6667 6.00001L8.70719 9.95957C8.31666 10.3501 7.6835 10.3501 7.29297 9.95956L3.33341 6" stroke="#050505" stroke-width="1.5" stroke-linecap="round" stroke-linejoin="round"/>
</svg>
