<svg width="32" height="32" viewBox="0 0 32 32" fill="none" xmlns="http://www.w3.org/2000/svg">
<path d="M8.9375 28.5C8.9375 29.2939 8.29391 29.9375 7.5 29.9375C6.70609 29.9375 6.0625 29.2939 6.0625 28.5C6.0625 27.7061 6.70609 27.0625 7.5 27.0625C8.29391 27.0625 8.9375 27.7061 8.9375 28.5Z" fill="#089083" stroke="#089083" stroke-width="0.125"/>
<path d="M12.4375 25C12.4375 25.7939 11.7939 26.4375 11 26.4375C10.2061 26.4375 9.5625 25.7939 9.5625 25C9.5625 24.2061 10.2061 23.5625 11 23.5625C11.7939 23.5625 12.4375 24.2061 12.4375 25Z" fill="#089083" stroke="#089083" stroke-width="0.125"/>
<path d="M4.9375 24.5C4.9375 25.2939 4.29391 25.9375 3.5 25.9375C2.70609 25.9375 2.0625 25.2939 2.0625 24.5C2.0625 23.7061 2.70609 23.0625 3.5 23.0625C4.29391 23.0625 4.9375 23.7061 4.9375 24.5Z" fill="#089083" stroke="#089083" stroke-width="0.125"/>
<path d="M8.4375 21C8.4375 21.7939 7.79391 22.4375 7 22.4375C6.20609 22.4375 5.5625 21.7939 5.5625 21C5.5625 20.2061 6.20609 19.5625 7 19.5625C7.79391 19.5625 8.4375 20.2061 8.4375 21Z" fill="#089083" stroke="#089083" stroke-width="0.125"/>
<path d="M30.9999 5.00001H27.4124C27.2826 4.99955 27.1539 5.02471 27.0338 5.07404C26.9137 5.12338 26.8045 5.19591 26.7124 5.28751L22.9999 9.00001L6.91244 11.675C6.73032 11.7051 6.56009 11.7851 6.42062 11.906C6.28114 12.0269 6.17786 12.1841 6.12221 12.3601C6.06656 12.5361 6.06071 12.7241 6.10532 12.9032C6.14993 13.0824 6.24325 13.2457 6.37494 13.375L18.6249 25.625C18.7543 25.7567 18.9176 25.85 19.0967 25.8946C19.2758 25.9392 19.4638 25.9334 19.6398 25.8777C19.8158 25.8221 19.973 25.7188 20.0939 25.5793C20.2148 25.4399 20.2948 25.2696 20.3249 25.0875L22.9999 9.00001" stroke="#089083" stroke-width="2" stroke-linecap="round" stroke-linejoin="round"/>
</svg>
